[
  {
    "model": "app.product",
    "pk": 1,
    "fields": {
      "name": "Shahenaz Blue Poly Silk Cushion Cover",
      "description": "The cover is made of cotton and measures 16 x 16 inches in size and the package contains one cushion cover.",
      "price": 200,
      "category": "Furnishing",
      "owner": 2,
      "created": "2016-01-14T18:05:36.359Z"
    }
  },
  {
    "model": "app.product",
    "pk": 2,
    "fields": {
      "name": "Stoneware Cups & Saucers",
      "description": "Unravel India Studio Stoneware Cups & Saucers - Set of 6",
      "price": 100,
      "category": "Dining",
      "owner": 2,
      "created": "2016-01-14T18:04:36.359Z"
    }
  },
  {
    "model": "app.product",
    "pk": 3,
    "fields": {
      "name": "Aesthetics Home Solution White Glass Chandelier",
      "description": "These wall lightings are not only a piece of beautiful décor, but also one of the best option to lighten-up your room space",
      "price": 100,
      "category": "Lamps",
      "owner": 3,
      "created": "2016-01-14T18:03:36.359Z"
    }
  }
]