[
{
    "fields": {
        "username": "userAdmin",
        "first_name": "",
        "last_name": "",
        "is_active": true,
        "is_superuser": true,
        "is_staff": true,
        "last_login": null,
        "groups": [],
        "user_permissions": [],
        "password": "pbkdf2_sha256$20000$nZNQaga69ZmP$N85+joPghjk7VB6TnghiQkc1o43MvBQVuUpd8w/o9jc=",
        "email": "admin@admincompany.com",
        "date_joined": "2016-01-15T01:39:39.699Z"
    },
    "model": "auth.user",
    "pk": 2
},
{
    "fields": {
        "username": "userPass",
        "first_name": "",
        "last_name": "",
        "is_active": true,
        "is_superuser": true,
        "is_staff": true,
        "last_login": null,
        "groups": [],
        "user_permissions": [],
        "password": "pbkdf2_sha256$20000$jUWdXzlzhWMd$s2DpWeDNUtuWkFMU0vgN64Uc6UEu5v64q6kt4aaTztg=",
        "email": "user@admincompany.com",
        "date_joined": "2016-01-15T01:39:55.189Z"
    },
    "model": "auth.user",
    "pk": 3
}
]